{
	"DefaultShipInfo" : { "Armor" : "base armor", "Sensor" : "base sensor", "Shield" : "base shield", "Hull" : "fighter", "Engine" : "base engine",
			"EquippedWeapons" : { "Primary" : [ "gun" ] } },
	"Bindings" : { "STARTING_SALVAGE" : 1000 }
}
